^C:\USERS\SPARKONDEV\DOCUMENTS\SSAF\SSA\SSA_BAG.CPP|C:\USERS\SPARKONDEV\DOCUMENTS\SSAF\SSA\SSA_COMMANDER.CPP|C:\USERS\SPARKONDEV\DOCUMENTS\SSAF\SSA\SSA_COMPONENT.CPP|C:\USERS\SPARKONDEV\DOCUMENTS\SSAF\SSA\SSA_COMPONENT_FACTORY.CPP|C:\USERS\SPARKONDEV\DOCUMENTS\SSAF\SSA\SSA_ENTITY.CPP|C:\USERS\SPARKONDEV\DOCUMENTS\SSAF\SSA\SSA_ENTITY_FACTORY.CPP|C:\USERS\SPARKONDEV\DOCUMENTS\SSAF\SSA\SSA_ENTITY_FRAMEWORK_API.CPP|C:\USERS\SPARKONDEV\DOCUMENTS\SSAF\SSA\SSA_ENTITY_HANDLE.CPP|C:\USERS\SPARKONDEV\DOCUMENTS\SSAF\SSA\SSA_RENDERER.CPP|C:\USERS\SPARKONDEV\DOCUMENTS\SSAF\SSA\SSA_RENDER_DEVICE.CPP|C:\USERS\SPARKONDEV\DOCUMENTS\SSAF\SSA\SSA_RESOURCE_FACTORY.CPP|C:\USERS\SPARKONDEV\DOCUMENTS\SSAF\SSA\SSA_SYSTEM.CPP|C:\USERS\SPARKONDEV\DOCUMENTS\SSAF\SSA\SSA_SYSTEM_LOOPER.CPP|C:\USERS\SPARKONDEV\DOCUMENTS\SSAF\SSA\TEST.CPP
C:\USERS\SPARKONDEV\DOCUMENTS\SSAF\SSA\DEBUG\VC120.PDB
C:\USERS\SPARKONDEV\DOCUMENTS\SSAF\SSA\DEBUG\VC120.IDB
C:\USERS\SPARKONDEV\DOCUMENTS\SSAF\SSA\DEBUG\SSA_BAG.OBJ
C:\USERS\SPARKONDEV\DOCUMENTS\SSAF\SSA\DEBUG\SSA_COMMANDER.OBJ
C:\USERS\SPARKONDEV\DOCUMENTS\SSAF\SSA\DEBUG\SSA_COMPONENT.OBJ
C:\USERS\SPARKONDEV\DOCUMENTS\SSAF\SSA\DEBUG\SSA_COMPONENT_FACTORY.OBJ
C:\USERS\SPARKONDEV\DOCUMENTS\SSAF\SSA\DEBUG\SSA_ENTITY.OBJ
C:\USERS\SPARKONDEV\DOCUMENTS\SSAF\SSA\DEBUG\SSA_ENTITY_FACTORY.OBJ
C:\USERS\SPARKONDEV\DOCUMENTS\SSAF\SSA\DEBUG\SSA_ENTITY_FRAMEWORK_API.OBJ
C:\USERS\SPARKONDEV\DOCUMENTS\SSAF\SSA\DEBUG\SSA_ENTITY_HANDLE.OBJ
C:\USERS\SPARKONDEV\DOCUMENTS\SSAF\SSA\DEBUG\SSA_RENDER_DEVICE.OBJ
C:\USERS\SPARKONDEV\DOCUMENTS\SSAF\SSA\DEBUG\SSA_RENDERER.OBJ
C:\USERS\SPARKONDEV\DOCUMENTS\SSAF\SSA\DEBUG\SSA_RESOURCE_FACTORY.OBJ
C:\USERS\SPARKONDEV\DOCUMENTS\SSAF\SSA\DEBUG\SSA_SYSTEM.OBJ
C:\USERS\SPARKONDEV\DOCUMENTS\SSAF\SSA\DEBUG\SSA_SYSTEM_LOOPER.OBJ
C:\USERS\SPARKONDEV\DOCUMENTS\SSAF\SSA\DEBUG\TEST.OBJ
^C:\USERS\SPARKONDEV\DOCUMENTS\SSAF\SSA\SSA_BAG.CPP
C:\USERS\SPARKONDEV\DOCUMENTS\SSAF\SSA\DEBUG\VC120.PDB
^C:\USERS\SPARKONDEV\DOCUMENTS\SSAF\SSA\SSA_COMMANDER.CPP
C:\USERS\SPARKONDEV\DOCUMENTS\SSAF\SSA\DEBUG\VC120.PDB
C:\USERS\SPARKONDEV\DOCUMENTS\SSAF\SSA\DEBUG\VC120.IDB
C:\USERS\SPARKONDEV\DOCUMENTS\SSAF\SSA\DEBUG\SSA_COMMANDER.OBJ
^C:\USERS\SPARKONDEV\DOCUMENTS\SSAF\SSA\SSA_COMPONENT.CPP
C:\USERS\SPARKONDEV\DOCUMENTS\SSAF\SSA\DEBUG\VC120.PDB
^C:\USERS\SPARKONDEV\DOCUMENTS\SSAF\SSA\SSA_COMPONENT_FACTORY.CPP
C:\USERS\SPARKONDEV\DOCUMENTS\SSAF\SSA\DEBUG\VC120.PDB
^C:\USERS\SPARKONDEV\DOCUMENTS\SSAF\SSA\SSA_ENTITY.CPP
C:\USERS\SPARKONDEV\DOCUMENTS\SSAF\SSA\DEBUG\VC120.PDB
^C:\USERS\SPARKONDEV\DOCUMENTS\SSAF\SSA\SSA_ENTITY_FACTORY.CPP
C:\USERS\SPARKONDEV\DOCUMENTS\SSAF\SSA\DEBUG\VC120.PDB
^C:\USERS\SPARKONDEV\DOCUMENTS\SSAF\SSA\SSA_ENTITY_FRAMEWORK_API.CPP
C:\USERS\SPARKONDEV\DOCUMENTS\SSAF\SSA\DEBUG\VC120.PDB
C:\USERS\SPARKONDEV\DOCUMENTS\SSAF\SSA\DEBUG\VC120.IDB
^C:\USERS\SPARKONDEV\DOCUMENTS\SSAF\SSA\SSA_ENTITY_HANDLE.CPP
C:\USERS\SPARKONDEV\DOCUMENTS\SSAF\SSA\DEBUG\VC120.PDB
^C:\USERS\SPARKONDEV\DOCUMENTS\SSAF\SSA\SSA_RENDER_DEVICE.CPP
C:\USERS\SPARKONDEV\DOCUMENTS\SSAF\SSA\DEBUG\VC120.PDB
C:\USERS\SPARKONDEV\DOCUMENTS\SSAF\SSA\DEBUG\VC120.IDB
C:\USERS\SPARKONDEV\DOCUMENTS\SSAF\SSA\DEBUG\SSA_RENDER_DEVICE.OBJ
^C:\USERS\SPARKONDEV\DOCUMENTS\SSAF\SSA\SSA_RENDERER.CPP
C:\USERS\SPARKONDEV\DOCUMENTS\SSAF\SSA\DEBUG\VC120.PDB
^C:\USERS\SPARKONDEV\DOCUMENTS\SSAF\SSA\SSA_RESOURCE_FACTORY.CPP
C:\USERS\SPARKONDEV\DOCUMENTS\SSAF\SSA\DEBUG\VC120.PDB
^C:\USERS\SPARKONDEV\DOCUMENTS\SSAF\SSA\SSA_SYSTEM.CPP
C:\USERS\SPARKONDEV\DOCUMENTS\SSAF\SSA\DEBUG\VC120.PDB
^C:\USERS\SPARKONDEV\DOCUMENTS\SSAF\SSA\SSA_SYSTEM_LOOPER.CPP
C:\USERS\SPARKONDEV\DOCUMENTS\SSAF\SSA\DEBUG\VC120.PDB
^C:\USERS\SPARKONDEV\DOCUMENTS\SSAF\SSA\TEST.CPP
C:\USERS\SPARKONDEV\DOCUMENTS\SSAF\SSA\DEBUG\VC120.PDB
C:\USERS\SPARKONDEV\DOCUMENTS\SSAF\SSA\DEBUG\VC120.IDB
C:\USERS\SPARKONDEV\DOCUMENTS\SSAF\SSA\DEBUG\TEST.OBJ
^C:\USERS\SPARKONDEV\DOCUMENTS\SSAF\SSA\SSA_ENTITY_FACTORY.CPP|C:\USERS\SPARKONDEV\DOCUMENTS\SSAF\SSA\SSA_ENTITY_FRAMEWORK_API.CPP|C:\USERS\SPARKONDEV\DOCUMENTS\SSAF\SSA\SSA_RENDERER.CPP|C:\USERS\SPARKONDEV\DOCUMENTS\SSAF\SSA\SSA_SYSTEM_LOOPER.CPP|C:\USERS\SPARKONDEV\DOCUMENTS\SSAF\SSA\TEST.CPP
C:\USERS\SPARKONDEV\DOCUMENTS\SSAF\SSA\DEBUG\VC120.PDB
C:\USERS\SPARKONDEV\DOCUMENTS\SSAF\SSA\DEBUG\VC120.IDB
C:\USERS\SPARKONDEV\DOCUMENTS\SSAF\SSA\DEBUG\SSA_ENTITY_FACTORY.OBJ
^C:\USERS\SPARKONDEV\DOCUMENTS\SSAF\SSA\SSA_ENTITY_FRAMEWORK_API.CPP|C:\USERS\SPARKONDEV\DOCUMENTS\SSAF\SSA\SSA_RENDERER.CPP|C:\USERS\SPARKONDEV\DOCUMENTS\SSAF\SSA\TEST.CPP
C:\USERS\SPARKONDEV\DOCUMENTS\SSAF\SSA\DEBUG\VC120.PDB
C:\USERS\SPARKONDEV\DOCUMENTS\SSAF\SSA\DEBUG\VC120.IDB
C:\USERS\SPARKONDEV\DOCUMENTS\SSAF\SSA\DEBUG\SSA_ENTITY_FRAMEWORK_API.OBJ
C:\USERS\SPARKONDEV\DOCUMENTS\SSAF\SSA\DEBUG\SSA_RENDERER.OBJ
^C:\USERS\SPARKONDEV\DOCUMENTS\SSAF\SSA\SSA_COMPONENT_FACTORY.CPP|C:\USERS\SPARKONDEV\DOCUMENTS\SSAF\SSA\SSA_ENTITY_FACTORY.CPP|C:\USERS\SPARKONDEV\DOCUMENTS\SSAF\SSA\SSA_ENTITY_FRAMEWORK_API.CPP|C:\USERS\SPARKONDEV\DOCUMENTS\SSAF\SSA\SSA_ENTITY_HANDLE.CPP|C:\USERS\SPARKONDEV\DOCUMENTS\SSAF\SSA\SSA_RENDERER.CPP|C:\USERS\SPARKONDEV\DOCUMENTS\SSAF\SSA\SSA_SYSTEM_LOOPER.CPP|C:\USERS\SPARKONDEV\DOCUMENTS\SSAF\SSA\TEST.CPP
C:\USERS\SPARKONDEV\DOCUMENTS\SSAF\SSA\DEBUG\VC120.PDB
C:\USERS\SPARKONDEV\DOCUMENTS\SSAF\SSA\DEBUG\VC120.IDB
C:\USERS\SPARKONDEV\DOCUMENTS\SSAF\SSA\DEBUG\SSA_ENTITY_FACTORY.OBJ
C:\USERS\SPARKONDEV\DOCUMENTS\SSAF\SSA\DEBUG\SSA_ENTITY_FRAMEWORK_API.OBJ
C:\USERS\SPARKONDEV\DOCUMENTS\SSAF\SSA\DEBUG\SSA_RENDERER.OBJ
C:\USERS\SPARKONDEV\DOCUMENTS\SSAF\SSA\DEBUG\SSA_COMPONENT_FACTORY.OBJ
C:\USERS\SPARKONDEV\DOCUMENTS\SSAF\SSA\DEBUG\SSA_ENTITY_HANDLE.OBJ
C:\USERS\SPARKONDEV\DOCUMENTS\SSAF\SSA\DEBUG\SSA_SYSTEM_LOOPER.OBJ
^C:\USERS\SPARKONDEV\DOCUMENTS\SSAF\SSA\SSA_ENTITY_FRAMEWORK_API.CPP|C:\USERS\SPARKONDEV\DOCUMENTS\SSAF\SSA\SSA_RENDERER.CPP|C:\USERS\SPARKONDEV\DOCUMENTS\SSAF\SSA\SSA_SYSTEM_LOOPER.CPP|C:\USERS\SPARKONDEV\DOCUMENTS\SSAF\SSA\TEST.CPP
C:\USERS\SPARKONDEV\DOCUMENTS\SSAF\SSA\DEBUG\VC120.PDB
C:\USERS\SPARKONDEV\DOCUMENTS\SSAF\SSA\DEBUG\VC120.IDB
C:\USERS\SPARKONDEV\DOCUMENTS\SSAF\SSA\DEBUG\SSA_ENTITY_FRAMEWORK_API.OBJ
C:\USERS\SPARKONDEV\DOCUMENTS\SSAF\SSA\DEBUG\SSA_RENDERER.OBJ
C:\USERS\SPARKONDEV\DOCUMENTS\SSAF\SSA\DEBUG\SSA_SYSTEM_LOOPER.OBJ
C:\USERS\SPARKONDEV\DOCUMENTS\SSAF\SSA\DEBUG\TEST.OBJ
^C:\USERS\SPARKONDEV\DOCUMENTS\SSAF\SSA\SSA_SYSTEM_LOOPER.CPP|C:\USERS\SPARKONDEV\DOCUMENTS\SSAF\SSA\TEST.CPP
C:\USERS\SPARKONDEV\DOCUMENTS\SSAF\SSA\DEBUG\VC120.PDB
C:\USERS\SPARKONDEV\DOCUMENTS\SSAF\SSA\DEBUG\VC120.IDB
^C:\USERS\SPARKONDEV\DOCUMENTS\SSAF\SSA\SSA_COMPONENT_FACTORY.CPP|C:\USERS\SPARKONDEV\DOCUMENTS\SSAF\SSA\SSA_ENTITY_HANDLE.CPP|C:\USERS\SPARKONDEV\DOCUMENTS\SSAF\SSA\SSA_SYSTEM_LOOPER.CPP|C:\USERS\SPARKONDEV\DOCUMENTS\SSAF\SSA\TEST.CPP
C:\USERS\SPARKONDEV\DOCUMENTS\SSAF\SSA\DEBUG\VC120.PDB
C:\USERS\SPARKONDEV\DOCUMENTS\SSAF\SSA\DEBUG\VC120.IDB
^C:\USERS\SPARKONDEV\DOCUMENTS\SSAF\SSA\SSA_COMPONENT_FACTORY.CPP|C:\USERS\SPARKONDEV\DOCUMENTS\SSAF\SSA\SSA_ENTITY_FRAMEWORK_API.CPP|C:\USERS\SPARKONDEV\DOCUMENTS\SSAF\SSA\SSA_ENTITY_HANDLE.CPP|C:\USERS\SPARKONDEV\DOCUMENTS\SSAF\SSA\SSA_RENDERER.CPP|C:\USERS\SPARKONDEV\DOCUMENTS\SSAF\SSA\SSA_SYSTEM_LOOPER.CPP|C:\USERS\SPARKONDEV\DOCUMENTS\SSAF\SSA\TEST.CPP
C:\USERS\SPARKONDEV\DOCUMENTS\SSAF\SSA\DEBUG\VC120.PDB
C:\USERS\SPARKONDEV\DOCUMENTS\SSAF\SSA\DEBUG\VC120.IDB
C:\USERS\SPARKONDEV\DOCUMENTS\SSAF\SSA\DEBUG\SSA_ENTITY_FRAMEWORK_API.OBJ
C:\USERS\SPARKONDEV\DOCUMENTS\SSAF\SSA\DEBUG\SSA_RENDERER.OBJ
C:\USERS\SPARKONDEV\DOCUMENTS\SSAF\SSA\DEBUG\TEST.OBJ
C:\USERS\SPARKONDEV\DOCUMENTS\SSAF\SSA\DEBUG\SSA_SYSTEM_LOOPER.OBJ
^C:\USERS\SPARKONDEV\DOCUMENTS\SSAF\SSA\SSA_COMPONENT_FACTORY.CPP|C:\USERS\SPARKONDEV\DOCUMENTS\SSAF\SSA\SSA_ENTITY.CPP|C:\USERS\SPARKONDEV\DOCUMENTS\SSAF\SSA\SSA_ENTITY_FACTORY.CPP|C:\USERS\SPARKONDEV\DOCUMENTS\SSAF\SSA\SSA_ENTITY_FRAMEWORK_API.CPP|C:\USERS\SPARKONDEV\DOCUMENTS\SSAF\SSA\SSA_ENTITY_HANDLE.CPP|C:\USERS\SPARKONDEV\DOCUMENTS\SSAF\SSA\SSA_RENDERER.CPP|C:\USERS\SPARKONDEV\DOCUMENTS\SSAF\SSA\SSA_SYSTEM_LOOPER.CPP|C:\USERS\SPARKONDEV\DOCUMENTS\SSAF\SSA\TEST.CPP
C:\USERS\SPARKONDEV\DOCUMENTS\SSAF\SSA\DEBUG\VC120.PDB
C:\USERS\SPARKONDEV\DOCUMENTS\SSAF\SSA\DEBUG\VC120.IDB
C:\USERS\SPARKONDEV\DOCUMENTS\SSAF\SSA\DEBUG\SSA_COMPONENT_FACTORY.OBJ
C:\USERS\SPARKONDEV\DOCUMENTS\SSAF\SSA\DEBUG\SSA_SYSTEM_LOOPER.OBJ
C:\USERS\SPARKONDEV\DOCUMENTS\SSAF\SSA\DEBUG\SSA_ENTITY_FRAMEWORK_API.OBJ
C:\USERS\SPARKONDEV\DOCUMENTS\SSAF\SSA\DEBUG\SSA_RENDERER.OBJ
^C:\USERS\SPARKONDEV\DOCUMENTS\SSAF\SSA\SSA_COMPONENT_FACTORY.CPP|C:\USERS\SPARKONDEV\DOCUMENTS\SSAF\SSA\SSA_ENTITY_FRAMEWORK_API.CPP|C:\USERS\SPARKONDEV\DOCUMENTS\SSAF\SSA\SSA_RENDERER.CPP|C:\USERS\SPARKONDEV\DOCUMENTS\SSAF\SSA\SSA_SYSTEM_LOOPER.CPP|C:\USERS\SPARKONDEV\DOCUMENTS\SSAF\SSA\TEST.CPP
C:\USERS\SPARKONDEV\DOCUMENTS\SSAF\SSA\DEBUG\VC120.PDB
C:\USERS\SPARKONDEV\DOCUMENTS\SSAF\SSA\DEBUG\VC120.IDB
C:\USERS\SPARKONDEV\DOCUMENTS\SSAF\SSA\DEBUG\SSA_COMPONENT_FACTORY.OBJ
C:\USERS\SPARKONDEV\DOCUMENTS\SSAF\SSA\DEBUG\SSA_ENTITY_FRAMEWORK_API.OBJ
C:\USERS\SPARKONDEV\DOCUMENTS\SSAF\SSA\DEBUG\SSA_RENDERER.OBJ
C:\USERS\SPARKONDEV\DOCUMENTS\SSAF\SSA\DEBUG\SSA_SYSTEM_LOOPER.OBJ
C:\USERS\SPARKONDEV\DOCUMENTS\SSAF\SSA\DEBUG\TEST.OBJ
^C:\USERS\SPARKONDEV\DOCUMENTS\SSAF\SSA\SSA_RENDERER.CPP|C:\USERS\SPARKONDEV\DOCUMENTS\SSAF\SSA\SSA_RENDER_DEVICE.CPP|C:\USERS\SPARKONDEV\DOCUMENTS\SSAF\SSA\TEST.CPP
C:\USERS\SPARKONDEV\DOCUMENTS\SSAF\SSA\DEBUG\VC120.PDB
C:\USERS\SPARKONDEV\DOCUMENTS\SSAF\SSA\DEBUG\VC120.IDB
C:\USERS\SPARKONDEV\DOCUMENTS\SSAF\SSA\DEBUG\SSA_RENDERER.OBJ
C:\USERS\SPARKONDEV\DOCUMENTS\SSAF\SSA\DEBUG\TEST.OBJ
C:\USERS\SPARKONDEV\DOCUMENTS\SSAF\SSA\DEBUG\SSA_RENDER_DEVICE.OBJ
