^C:\USERS\SPARKONDEV\DOCUMENTS\VISUAL STUDIO 2013\PROJECTS\SSA\SSA\SSA_BAG.CPP
/c /Zi /nologo /W3 /WX- /O2 /Oi /Oy- /GL /D WIN32 /D NDEBUG /D _LIB /D _UNICODE /D UNICODE /Gm- /EHsc /MD /GS /Gy /fp:precise /Zc:wchar_t /Zc:forScope /Fo"RELEASE\\" /Fd"RELEASE\VC120.PDB" /Gd /TP /analyze- C:\USERS\SPARKONDEV\DOCUMENTS\VISUAL STUDIO 2013\PROJECTS\SSA\SSA\SSA_BAG.CPP
^C:\USERS\SPARKONDEV\DOCUMENTS\VISUAL STUDIO 2013\PROJECTS\SSA\SSA\SSA_COMMANDER.CPP
/c /Zi /nologo /W3 /WX- /O2 /Oi /Oy- /GL /D WIN32 /D NDEBUG /D _LIB /D _UNICODE /D UNICODE /Gm- /EHsc /MD /GS /Gy /fp:precise /Zc:wchar_t /Zc:forScope /Fo"RELEASE\\" /Fd"RELEASE\VC120.PDB" /Gd /TP /analyze- C:\USERS\SPARKONDEV\DOCUMENTS\VISUAL STUDIO 2013\PROJECTS\SSA\SSA\SSA_COMMANDER.CPP
^C:\USERS\SPARKONDEV\DOCUMENTS\VISUAL STUDIO 2013\PROJECTS\SSA\SSA\TEST.CPP
/c /Zi /nologo /W3 /WX- /O2 /Oi /Oy- /GL /D WIN32 /D NDEBUG /D _LIB /D _UNICODE /D UNICODE /Gm- /EHsc /MD /GS /Gy /fp:precise /Zc:wchar_t /Zc:forScope /Fo"RELEASE\\" /Fd"RELEASE\VC120.PDB" /Gd /TP /analyze- C:\USERS\SPARKONDEV\DOCUMENTS\VISUAL STUDIO 2013\PROJECTS\SSA\SSA\TEST.CPP
