^C:\USERS\SPARKONDEV\DOCUMENTS\VISUAL STUDIO 2013\PROJECTS\SSA\SSA\RELEASE\SSA_BAG.OBJ|C:\USERS\SPARKONDEV\DOCUMENTS\VISUAL STUDIO 2013\PROJECTS\SSA\SSA\RELEASE\SSA_COMMANDER.OBJ|C:\USERS\SPARKONDEV\DOCUMENTS\VISUAL STUDIO 2013\PROJECTS\SSA\SSA\RELEASE\TEST.OBJ
C:\WINDOWS\SYSTEM32\TZRES.DLL
C:\USERS\SPARKONDEV\DOCUMENTS\VISUAL STUDIO 2013\PROJECTS\SSA\SSA\RELEASE\SSA_BAG.OBJ
C:\USERS\SPARKONDEV\DOCUMENTS\VISUAL STUDIO 2013\PROJECTS\SSA\SSA\RELEASE\SSA_COMMANDER.OBJ
C:\USERS\SPARKONDEV\DOCUMENTS\VISUAL STUDIO 2013\PROJECTS\SSA\SSA\RELEASE\TEST.OBJ
C:\WINDOWS\GLOBALIZATION\SORTING\SORTDEFAULT.NLS
