^C:\USERS\SPARKONDEV\DOCUMENTS\VISUAL STUDIO 2013\PROJECTS\SSA\SSA\SSA_BAG.CPP|C:\USERS\SPARKONDEV\DOCUMENTS\VISUAL STUDIO 2013\PROJECTS\SSA\SSA\TEST.CPP
C:\USERS\SPARKONDEV\DOCUMENTS\VISUAL STUDIO 2013\PROJECTS\SSA\SSA\X64\TEST\VC120.PDB
C:\USERS\SPARKONDEV\DOCUMENTS\VISUAL STUDIO 2013\PROJECTS\SSA\SSA\X64\TEST\TEST.OBJ
C:\USERS\SPARKONDEV\DOCUMENTS\VISUAL STUDIO 2013\PROJECTS\SSA\SSA\X64\TEST\SSA_BAG.OBJ
^C:\USERS\SPARKONDEV\DOCUMENTS\VISUAL STUDIO 2013\PROJECTS\SSA\SSA\SSA_BAG.CPP|C:\USERS\SPARKONDEV\DOCUMENTS\VISUAL STUDIO 2013\PROJECTS\SSA\SSA\SSA_COMMANDER.CPP
C:\USERS\SPARKONDEV\DOCUMENTS\VISUAL STUDIO 2013\PROJECTS\SSA\SSA\X64\TEST\VC120.PDB
C:\USERS\SPARKONDEV\DOCUMENTS\VISUAL STUDIO 2013\PROJECTS\SSA\SSA\X64\TEST\SSA_BAG.OBJ
^C:\USERS\SPARKONDEV\DOCUMENTS\VISUAL STUDIO 2013\PROJECTS\SSA\SSA\SSA_BAG.CPP
C:\USERS\SPARKONDEV\DOCUMENTS\VISUAL STUDIO 2013\PROJECTS\SSA\SSA\X64\TEST\SSA_BAG.OBJ
^C:\USERS\SPARKONDEV\DOCUMENTS\VISUAL STUDIO 2013\PROJECTS\SSA\SSA\TEST.CPP
C:\USERS\SPARKONDEV\DOCUMENTS\VISUAL STUDIO 2013\PROJECTS\SSA\SSA\X64\TEST\VC120.PDB
C:\USERS\SPARKONDEV\DOCUMENTS\VISUAL STUDIO 2013\PROJECTS\SSA\SSA\X64\TEST\TEST.OBJ
^C:\USERS\SPARKONDEV\DOCUMENTS\VISUAL STUDIO 2013\PROJECTS\SSA\SSA\SSA_COMMANDER.CPP
C:\USERS\SPARKONDEV\DOCUMENTS\VISUAL STUDIO 2013\PROJECTS\SSA\SSA\X64\TEST\VC120.PDB
C:\USERS\SPARKONDEV\DOCUMENTS\VISUAL STUDIO 2013\PROJECTS\SSA\SSA\X64\TEST\SSA_COMMANDER.OBJ
